<svg version="1.1" baseProfile="full" width="100" height="1000" xmlns="http://www.w3.org/2000/svg">
<rect x="0" y="832" width="100" height="30" fill="hsl(180, 73%, 0%)" fill-opacity="0.4500944808112629" />
<rect x="0" y="729" width="100" height="55" fill="hsl(180, 33%, 51%)" fill-opacity="0.44681535407918316" />
<rect x="0" y="320" width="100" height="17" fill="hsl(180, 58%, 1%)" fill-opacity="0.28823685834721924" />
<rect x="78" y="119" width="3" height="81" fill="hsl(180, 49%, 88%)" fill-opacity="0.5839221648632388" />
<rect x="8" y="379" width="89" height="67" fill="hsl(180, 34%, 78%)" fill-opacity="0.5447074910948159" />
<rect x="21" y="330" width="73" height="134" fill="hsl(180, 65%, 76%)" fill-opacity="0.059313898630991124" />
<rect x="0" y="614" width="100" height="2" fill="hsl(180, 90%, 68%)" fill-opacity="0.7292367044712512" />
<rect x="29" y="758" width="54" height="24" fill="hsl(180, 67%, 97%)" fill-opacity="0.2839438599023386" />
<rect x="12" y="280" width="21" height="212" fill="hsl(180, 64%, 15%)" fill-opacity="0.7384396827711313" />
<rect x="87" y="0" width="1" height="1000" fill="hsl(180, 55%, 52%)" fill-opacity="0.365828662539854" />
<rect x="14" y="53" width="26" height="132" fill="hsl(180, 71%, 6%)" fill-opacity="0.47532068924119397" />
<rect x="27" y="191" width="36" height="116" fill="hsl(180, 78%, 84%)" fill-opacity="0.9274249625237487" />
<rect x="46" y="149" width="46" height="150" fill="hsl(180, 65%, 37%)" fill-opacity="0.1738813715727069" />
<rect x="0" y="732" width="100" height="11" fill="hsl(180, 81%, 39%)" fill-opacity="0.23910708077256204" />
<rect x="0" y="550" width="100" height="22" fill="hsl(180, 17%, 28%)" fill-opacity="0.21127512155601313" />
<rect x="51" y="191" width="33" height="187" fill="hsl(180, 99%, 16%)" fill-opacity="0.6498054376066931" />
<rect x="0" y="853" width="100" height="50" fill="hsl(180, 40%, 70%)" fill-opacity="0.4047059392629828" />
<rect x="0" y="727" width="100" height="11" fill="hsl(180, 48%, 2%)" fill-opacity="0.45549852707496996" />
<rect x="15" y="761" width="64" height="55" fill="hsl(180, 70%, 73%)" fill-opacity="0.24001638017872995" />
<rect x="0" y="177" width="100" height="43" fill="hsl(180, 34%, 97%)" fill-opacity="0.7457850428300377" />
<rect x="2" y="86" width="96" height="89" fill="hsl(180, 9%, 33%)" fill-opacity="0.7791955827060385" />
<rect x="6" y="266" width="70" height="80" fill="hsl(180, 59%, 4%)" fill-opacity="0.5494613850015511" />
<rect x="0" y="12" width="100" height="16" fill="hsl(180, 86%, 57%)" fill-opacity="0.41225585363968" />
<rect x="3" y="883" width="35" height="89" fill="hsl(180, 98%, 86%)" fill-opacity="0.7253507371489636" />
<rect x="56" y="160" width="9" height="262" fill="hsl(180, 65%, 75%)" fill-opacity="0.5162334862424607" />
<rect x="63" y="481" width="16" height="285" fill="hsl(180, 82%, 68%)" fill-opacity="0.8180078127213611" />
<rect x="0" y="156" width="100" height="31" fill="hsl(180, 22%, 49%)" fill-opacity="0.3859056158107117" />
<rect x="0" y="210" width="100" height="12" fill="hsl(180, 100%, 35%)" fill-opacity="0.2575204379298712" />
<rect x="0" y="703" width="100" height="12" fill="hsl(180, 13%, 28%)" fill-opacity="0.4431172987947988" />
<rect x="29" y="869" width="55" height="55" fill="hsl(180, 92%, 81%)" fill-opacity="0.7121281431465679" />
<rect x="1" y="600" width="53" height="50" fill="hsl(180, 10%, 15%)" fill-opacity="0.8510774242100071" />
<rect x="12" y="91" width="19" height="380" fill="hsl(180, 16%, 38%)" fill-opacity="0.8809314905484615" />
<rect x="0" y="632" width="100" height="6" fill="hsl(180, 58%, 7%)" fill-opacity="0.09648807006695459" />
<rect x="0" y="211" width="33" height="34" fill="hsl(180, 91%, 19%)" fill-opacity="0.21877605877013606" />
<rect x="9" y="540" width="82" height="98" fill="hsl(180, 67%, 98%)" fill-opacity="0.06585474247212575" />
<rect x="0" y="598" width="100" height="10" fill="hsl(180, 16%, 82%)" fill-opacity="0.06155849281553505" />
<rect x="15" y="405" width="19" height="306" fill="hsl(180, 96%, 35%)" fill-opacity="0.39414923902627774" />
<rect x="53" y="111" width="17" height="215" fill="hsl(180, 43%, 9%)" fill-opacity="0.31505071453188105" />
<rect x="0" y="576" width="100" height="34" fill="hsl(180, 45%, 37%)" fill-opacity="0.6655739242078018" />
<rect x="5" y="515" width="83" height="83" fill="hsl(180, 34%, 83%)" fill-opacity="0.577896414955335" />
<rect x="22" y="460" width="1" height="425" fill="hsl(180, 59%, 15%)" fill-opacity="0.8888912000459948" />
<rect x="5" y="708" width="35" height="176" fill="hsl(180, 42%, 68%)" fill-opacity="0.665147826758504" />
<rect x="3" y="915" width="75" height="25" fill="hsl(180, 33%, 71%)" fill-opacity="0.8458755927586291" />
<rect x="20" y="124" width="53" height="61" fill="hsl(180, 26%, 92%)" fill-opacity="0.014474874166686358" />
<rect x="32" y="221" width="13" height="93" fill="hsl(180, 93%, 13%)" fill-opacity="0.4581881894030535" />
<rect x="0" y="735" width="100" height="28" fill="hsl(180, 97%, 47%)" fill-opacity="0.803822949348403" />
<rect x="0" y="274" width="100" height="28" fill="hsl(180, 71%, 25%)" fill-opacity="0.5902463734322071" />
<rect x="0" y="758" width="100" height="45" fill="hsl(180, 53%, 52%)" fill-opacity="0.7173663696279787" />
<rect x="17" y="306" width="7" height="649" fill="hsl(180, 23%, 17%)" fill-opacity="0.358283232053633" />
<rect x="0" y="532" width="100" height="38" fill="hsl(180, 33%, 68%)" fill-opacity="0.6230369066046493" />
<rect x="0" y="84" width="100" height="58" fill="hsl(180, 92%, 74%)" fill-opacity="0.34592444372459974" />
<rect x="19" y="221" width="76" height="83" fill="hsl(180, 45%, 92%)" fill-opacity="0.44142213596286295" />
<rect x="0" y="607" width="100" height="54" fill="hsl(180, 60%, 43%)" fill-opacity="0.30642588039607066" />
<rect x="29" y="4" width="18" height="553" fill="hsl(180, 88%, 24%)" fill-opacity="0.45709150542115284" />
<rect x="0" y="594" width="100" height="83" fill="hsl(180, 54%, 18%)" fill-opacity="0.876419539008191" />
<rect x="75" y="747" width="13" height="113" fill="hsl(180, 98%, 94%)" fill-opacity="0.6048304184434258" />
<rect x="0" y="236" width="62" height="25" fill="hsl(180, 58%, 80%)" fill-opacity="0.12845014595269466" />
<rect x="0" y="373" width="100" height="19" fill="hsl(180, 0%, 73%)" fill-opacity="0.5657820866737351" />
<rect x="0" y="143" width="100" height="3" fill="hsl(180, 28%, 86%)" fill-opacity="0.09344773680740204" />
<rect x="17" y="643" width="80" height="99" fill="hsl(180, 41%, 24%)" fill-opacity="0.9972822068141246" />
<rect x="72" y="528" width="5" height="198" fill="hsl(180, 93%, 37%)" fill-opacity="0.3207065540124795" />
<rect x="0" y="789" width="100" height="27" fill="hsl(180, 24%, 36%)" fill-opacity="0.6564742175420129" />
<rect x="0" y="849" width="100" height="52" fill="hsl(180, 48%, 99%)" fill-opacity="0.24542144385406917" />
<rect x="8" y="47" width="64" height="19" fill="hsl(180, 4%, 52%)" fill-opacity="0.16605862090767531" />
<rect x="2" y="30" width="67" height="56" fill="hsl(180, 3%, 41%)" fill-opacity="0.035396937850685095" />
<rect x="47" y="826" width="43" height="24" fill="hsl(180, 22%, 36%)" fill-opacity="0.8593289145324453" />
<rect x="1" y="263" width="81" height="114" fill="hsl(180, 12%, 39%)" fill-opacity="0.554948953630594" />
<rect x="0" y="665" width="100" height="6" fill="hsl(180, 15%, 10%)" fill-opacity="0.44245157799721" />
<rect x="41" y="108" width="43" height="190" fill="hsl(180, 68%, 70%)" fill-opacity="0.9794762042249997" />
<rect x="37" y="5" width="8" height="995" fill="hsl(180, 53%, 86%)" fill-opacity="0.613268360445392" />
<rect x="69" y="295" width="23" height="19" fill="hsl(180, 99%, 49%)" fill-opacity="0.585902643532032" />
<rect x="13" y="295" width="46" height="174" fill="hsl(180, 44%, 24%)" fill-opacity="0.4093927831600057" />
<rect x="0" y="749" width="100" height="31" fill="hsl(180, 45%, 64%)" fill-opacity="0.34073941867472646" />
<rect x="0" y="450" width="100" height="70" fill="hsl(180, 37%, 34%)" fill-opacity="0.28377454029737836" />
<rect x="21" y="325" width="61" height="129" fill="hsl(180, 49%, 74%)" fill-opacity="0.18261267203747744" />
<rect x="18" y="757" width="62" height="143" fill="hsl(180, 51%, 64%)" fill-opacity="0.8862388829811925" />
<rect x="94" y="0" width="1" height="1000" fill="hsl(180, 7%, 54%)" fill-opacity="0.23023001427792278" />
<rect x="29" y="991" width="18" height="9" fill="hsl(180, 44%, 28%)" fill-opacity="0.4332296894821709" />
<rect x="0" y="966" width="100" height="33" fill="hsl(180, 4%, 28%)" fill-opacity="0.6700289198061902" />
<rect x="0" y="801" width="100" height="75" fill="hsl(180, 7%, 78%)" fill-opacity="0.024431595092441416" />
<rect x="11" y="92" width="79" height="42" fill="hsl(180, 41%, 16%)" fill-opacity="0.06803035106919064" />
<rect x="48" y="575" width="48" height="63" fill="hsl(180, 89%, 51%)" fill-opacity="0.23096030173128224" />
<rect x="3" y="670" width="56" height="56" fill="hsl(180, 30%, 36%)" fill-opacity="0.28496192092670736" />
<rect x="28" y="524" width="38" height="4" fill="hsl(180, 61%, 43%)" fill-opacity="0.3504139649548139" />
<rect x="85" y="252" width="10" height="415" fill="hsl(180, 84%, 60%)" fill-opacity="0.6799126180258781" />
<rect x="45" y="413" width="52" height="94" fill="hsl(180, 16%, 27%)" fill-opacity="0.13077348295210978" />
<rect x="1" y="81" width="63" height="12" fill="hsl(180, 41%, 59%)" fill-opacity="0.5312988544424655" />
<rect x="0" y="762" width="100" height="11" fill="hsl(180, 23%, 47%)" fill-opacity="0.7504005891281804" />
<rect x="6" y="653" width="51" height="152" fill="hsl(180, 48%, 60%)" fill-opacity="0.24136444690622627" />
<rect x="81" y="0" width="1" height="1000" fill="hsl(180, 66%, 39%)" fill-opacity="0.8530364452608175" />
<rect x="26" y="798" width="65" height="58" fill="hsl(180, 73%, 48%)" fill-opacity="0.41794118942884184" />
<rect x="0" y="918" width="100" height="22" fill="hsl(180, 94%, 3%)" fill-opacity="0.41967529880550736" />
<rect x="20" y="876" width="62" height="106" fill="hsl(180, 69%, 78%)" fill-opacity="0.3363936784396212" />
<rect x="8" y="44" width="17" height="7" fill="hsl(180, 48%, 4%)" fill-opacity="0.7754395376535415" />
<rect x="68" y="146" width="27" height="186" fill="hsl(180, 62%, 79%)" fill-opacity="0.7981116616304337" />
<rect x="33" y="20" width="18" height="488" fill="hsl(180, 96%, 22%)" fill-opacity="0.9569870675623531" />
<rect x="0" y="514" width="100" height="46" fill="hsl(180, 53%, 0%)" fill-opacity="0.3943417728238936" />
<rect x="3" y="203" width="30" height="34" fill="hsl(180, 59%, 94%)" fill-opacity="0.13793273167627407" />
<rect x="36" y="431" width="30" height="62" fill="hsl(180, 16%, 49%)" fill-opacity="0.234663861835826" />
<rect x="11" y="100" width="52" height="146" fill="hsl(180, 59%, 48%)" fill-opacity="0.42906704178020116" />
</svg>
